<mxfile host="" modified="2020-07-01T15:56:23.457Z" agent="5.0 (Windows NT 10.0; Win64; x64) AppleWebKit/537.36 (KHTML, like Gecko) Code/1.46.1 Chrome/78.0.3904.130 Electron/7.3.1 Safari/537.36" etag="YEnz8zxwDYWoquu20u_J" version="13.1.3" pages="9">
    <diagram id="6hGFLwfOUW9BJ-s0fimq" name="全体図">
        <mxGraphModel dx="1563" dy="577" grid="1" gridSize="10" guides="1" tooltips="1" connect="1" arrows="1" fold="1" page="1" pageScale="1" pageWidth="827" pageHeight="1169" math="0" shadow="0">
            <root>
                <mxCell id="0"/>
                <mxCell id="1" parent="0"/>
                <mxCell id="32" value="トップ画面" style="swimlane;html=1;startSize=20;horizontal=1;childLayout=treeLayout;horizontalTree=0;resizable=0;containerType=tree;" parent="1" vertex="1">
                    <mxGeometry x="250" y="20" width="750" height="190" as="geometry"/>
                </mxCell>
                <mxCell id="33" value="贈答品リスト" style="whiteSpace=wrap;html=1;" parent="32" vertex="1">
                    <mxGeometry x="323.25" y="40" width="103.5" height="40" as="geometry"/>
                </mxCell>
                <mxCell id="36" value="個人名の検索画面" style="whiteSpace=wrap;html=1;" parent="32" vertex="1">
                    <mxGeometry x="20" y="130" width="110" height="40" as="geometry"/>
                </mxCell>
                <mxCell id="37" value="" style="edgeStyle=elbowEdgeStyle;elbow=vertical;html=1;rounded=0;" parent="32" source="33" target="36" edge="1">
                    <mxGeometry relative="1" as="geometry"/>
                </mxCell>
                <mxCell id="JibLIInP_nUATopOJfee-37" value="" style="edgeStyle=elbowEdgeStyle;elbow=vertical;html=1;rounded=0;" edge="1" target="JibLIInP_nUATopOJfee-38" source="33" parent="32">
                    <mxGeometry relative="1" as="geometry">
                        <mxPoint x="-138" y="100" as="sourcePoint"/>
                    </mxGeometry>
                </mxCell>
                <mxCell id="JibLIInP_nUATopOJfee-38" value="個人名リスト" style="whiteSpace=wrap;html=1;" vertex="1" parent="32">
                    <mxGeometry x="170" y="130" width="110" height="40" as="geometry"/>
                </mxCell>
                <mxCell id="z5Avvdh778aLWgWw0NUS-37" value="" style="edgeStyle=elbowEdgeStyle;elbow=vertical;html=1;rounded=0;" edge="1" target="z5Avvdh778aLWgWw0NUS-38" source="33" parent="32">
                    <mxGeometry relative="1" as="geometry">
                        <mxPoint x="-59.75" y="100" as="sourcePoint"/>
                    </mxGeometry>
                </mxCell>
                <mxCell id="z5Avvdh778aLWgWw0NUS-38" value="個人を新規登録" style="whiteSpace=wrap;html=1;" vertex="1" parent="32">
                    <mxGeometry x="320" y="130" width="110" height="40" as="geometry"/>
                </mxCell>
                <mxCell id="S16YsJGQa3P8UsC8Cbdx-37" value="" style="edgeStyle=elbowEdgeStyle;elbow=vertical;html=1;rounded=0;" edge="1" target="S16YsJGQa3P8UsC8Cbdx-38" source="33" parent="32">
                    <mxGeometry relative="1" as="geometry">
                        <mxPoint x="93.5" y="100" as="sourcePoint"/>
                    </mxGeometry>
                </mxCell>
                <mxCell id="S16YsJGQa3P8UsC8Cbdx-38" value="気になるもの登録" style="whiteSpace=wrap;html=1;" vertex="1" parent="32">
                    <mxGeometry x="470" y="130" width="110" height="40" as="geometry"/>
                </mxCell>
                <mxCell id="S16YsJGQa3P8UsC8Cbdx-39" value="" style="edgeStyle=elbowEdgeStyle;elbow=vertical;html=1;rounded=0;" edge="1" target="S16YsJGQa3P8UsC8Cbdx-40" source="33" parent="32">
                    <mxGeometry relative="1" as="geometry">
                        <mxPoint x="321.75" y="100" as="sourcePoint"/>
                    </mxGeometry>
                </mxCell>
                <mxCell id="S16YsJGQa3P8UsC8Cbdx-40" value="気になるものリスト" style="whiteSpace=wrap;html=1;" vertex="1" parent="32">
                    <mxGeometry x="620" y="130" width="110" height="40" as="geometry"/>
                </mxCell>
                <mxCell id="H9J37aMuzzpDtW2UKTWg-37" value="個人詳細画面" style="swimlane;html=1;startSize=20;horizontal=1;childLayout=treeLayout;horizontalTree=0;resizable=0;containerType=tree;fontSize=16;align=center;flipH=1;flipV=0;" vertex="1" parent="1">
                    <mxGeometry x="-400" y="320" width="840" height="190" as="geometry"/>
                </mxCell>
                <mxCell id="H9J37aMuzzpDtW2UKTWg-38" value="個人詳細画面" style="whiteSpace=wrap;html=1;" vertex="1" parent="H9J37aMuzzpDtW2UKTWg-37">
                    <mxGeometry x="370" y="40" width="100" height="40" as="geometry"/>
                </mxCell>
                <mxCell id="H9J37aMuzzpDtW2UKTWg-39" value="戻る" style="whiteSpace=wrap;html=1;" vertex="1" parent="H9J37aMuzzpDtW2UKTWg-37">
                    <mxGeometry x="720" y="130" width="100" height="40" as="geometry"/>
                </mxCell>
                <mxCell id="H9J37aMuzzpDtW2UKTWg-40" value="" style="edgeStyle=elbowEdgeStyle;elbow=vertical;html=1;rounded=0;" edge="1" parent="H9J37aMuzzpDtW2UKTWg-37" source="H9J37aMuzzpDtW2UKTWg-38" target="H9J37aMuzzpDtW2UKTWg-39">
                    <mxGeometry relative="1" as="geometry"/>
                </mxCell>
                <mxCell id="H9J37aMuzzpDtW2UKTWg-41" value="削除" style="whiteSpace=wrap;html=1;" vertex="1" parent="H9J37aMuzzpDtW2UKTWg-37">
                    <mxGeometry x="580" y="130" width="100" height="40" as="geometry"/>
                </mxCell>
                <mxCell id="H9J37aMuzzpDtW2UKTWg-42" value="" style="edgeStyle=elbowEdgeStyle;elbow=vertical;html=1;rounded=0;" edge="1" parent="H9J37aMuzzpDtW2UKTWg-37" source="H9J37aMuzzpDtW2UKTWg-38" target="H9J37aMuzzpDtW2UKTWg-41">
                    <mxGeometry relative="1" as="geometry"/>
                </mxCell>
                <mxCell id="7a9eFUgy64wyajghEUV_-37" value="" style="edgeStyle=elbowEdgeStyle;elbow=vertical;html=1;rounded=0;" edge="1" target="7a9eFUgy64wyajghEUV_-38" source="H9J37aMuzzpDtW2UKTWg-38" parent="H9J37aMuzzpDtW2UKTWg-37">
                    <mxGeometry relative="1" as="geometry">
                        <mxPoint x="-290" y="430" as="sourcePoint"/>
                    </mxGeometry>
                </mxCell>
                <mxCell id="7a9eFUgy64wyajghEUV_-38" value="プレゼント候補リスト" style="whiteSpace=wrap;html=1;" vertex="1" parent="H9J37aMuzzpDtW2UKTWg-37">
                    <mxGeometry x="440" y="130" width="100" height="40" as="geometry"/>
                </mxCell>
                <mxCell id="_QovbPnCOXBD5n9xN2iX-37" value="" style="edgeStyle=elbowEdgeStyle;elbow=vertical;html=1;rounded=0;" edge="1" target="_QovbPnCOXBD5n9xN2iX-38" source="H9J37aMuzzpDtW2UKTWg-38" parent="H9J37aMuzzpDtW2UKTWg-37">
                    <mxGeometry relative="1" as="geometry">
                        <mxPoint x="-150" y="430" as="sourcePoint"/>
                    </mxGeometry>
                </mxCell>
                <mxCell id="_QovbPnCOXBD5n9xN2iX-38" value="履歴" style="whiteSpace=wrap;html=1;" vertex="1" parent="H9J37aMuzzpDtW2UKTWg-37">
                    <mxGeometry x="300" y="130" width="100" height="40" as="geometry"/>
                </mxCell>
                <mxCell id="_QovbPnCOXBD5n9xN2iX-39" value="" style="edgeStyle=elbowEdgeStyle;elbow=vertical;html=1;rounded=0;" edge="1" target="_QovbPnCOXBD5n9xN2iX-40" source="H9J37aMuzzpDtW2UKTWg-38" parent="H9J37aMuzzpDtW2UKTWg-37">
                    <mxGeometry relative="1" as="geometry">
                        <mxPoint x="60" y="430" as="sourcePoint"/>
                    </mxGeometry>
                </mxCell>
                <mxCell id="_QovbPnCOXBD5n9xN2iX-40" value="もらった登録" style="whiteSpace=wrap;html=1;" vertex="1" parent="H9J37aMuzzpDtW2UKTWg-37">
                    <mxGeometry x="160" y="130" width="100" height="40" as="geometry"/>
                </mxCell>
                <mxCell id="W2TgngdXc2Tj9XjrmFMH-37" value="" style="edgeStyle=elbowEdgeStyle;elbow=vertical;html=1;rounded=0;" edge="1" target="W2TgngdXc2Tj9XjrmFMH-38" source="H9J37aMuzzpDtW2UKTWg-38" parent="H9J37aMuzzpDtW2UKTWg-37">
                    <mxGeometry relative="1" as="geometry">
                        <mxPoint x="-80" y="400" as="sourcePoint"/>
                    </mxGeometry>
                </mxCell>
                <mxCell id="W2TgngdXc2Tj9XjrmFMH-38" value="あげた登録" style="whiteSpace=wrap;html=1;" vertex="1" parent="H9J37aMuzzpDtW2UKTWg-37">
                    <mxGeometry x="20" y="130" width="100" height="40" as="geometry"/>
                </mxCell>
                <mxCell id="_QovbPnCOXBD5n9xN2iX-41" value="" style="endArrow=classic;html=1;fontSize=16;exitX=0.5;exitY=1;exitDx=0;exitDy=0;entryX=0.5;entryY=0;entryDx=0;entryDy=0;" edge="1" parent="1" source="JibLIInP_nUATopOJfee-38" target="H9J37aMuzzpDtW2UKTWg-37">
                    <mxGeometry width="50" height="50" relative="1" as="geometry">
                        <mxPoint x="340" y="320" as="sourcePoint"/>
                        <mxPoint x="230" y="270" as="targetPoint"/>
                    </mxGeometry>
                </mxCell>
                <mxCell id="7OnyWFmnBboxzsiJ5zTd-37" value="List" style="swimlane;fontStyle=0;childLayout=stackLayout;horizontal=1;startSize=26;fillColor=none;horizontalStack=0;resizeParent=1;resizeParentMax=0;resizeLast=0;collapsible=1;marginBottom=0;fontSize=16;align=center;" vertex="1" parent="1">
                    <mxGeometry x="-400" y="550" width="140" height="234" as="geometry"/>
                </mxCell>
                <mxCell id="7OnyWFmnBboxzsiJ5zTd-38" value="・あげた日" style="text;strokeColor=none;fillColor=none;align=left;verticalAlign=top;spacingLeft=4;spacingRight=4;overflow=hidden;rotatable=0;points=[[0,0.5],[1,0.5]];portConstraint=eastwest;" vertex="1" parent="7OnyWFmnBboxzsiJ5zTd-37">
                    <mxGeometry y="26" width="140" height="26" as="geometry"/>
                </mxCell>
                <mxCell id="7OnyWFmnBboxzsiJ5zTd-39" value="・商品名" style="text;strokeColor=none;fillColor=none;align=left;verticalAlign=top;spacingLeft=4;spacingRight=4;overflow=hidden;rotatable=0;points=[[0,0.5],[1,0.5]];portConstraint=eastwest;" vertex="1" parent="7OnyWFmnBboxzsiJ5zTd-37">
                    <mxGeometry y="52" width="140" height="26" as="geometry"/>
                </mxCell>
                <mxCell id="7OnyWFmnBboxzsiJ5zTd-40" value="・理由" style="text;strokeColor=none;fillColor=none;align=left;verticalAlign=top;spacingLeft=4;spacingRight=4;overflow=hidden;rotatable=0;points=[[0,0.5],[1,0.5]];portConstraint=eastwest;" vertex="1" parent="7OnyWFmnBboxzsiJ5zTd-37">
                    <mxGeometry y="78" width="140" height="26" as="geometry"/>
                </mxCell>
                <mxCell id="ooHHzTaG0BJS8v8ZDkvl-37" value="・金額" style="text;strokeColor=none;fillColor=none;align=left;verticalAlign=top;spacingLeft=4;spacingRight=4;overflow=hidden;rotatable=0;points=[[0,0.5],[1,0.5]];portConstraint=eastwest;" vertex="1" parent="7OnyWFmnBboxzsiJ5zTd-37">
                    <mxGeometry y="104" width="140" height="26" as="geometry"/>
                </mxCell>
                <mxCell id="WwPmFlh7K-9S4osBO-yA-37" value="・メモ" style="text;strokeColor=none;fillColor=none;align=left;verticalAlign=top;spacingLeft=4;spacingRight=4;overflow=hidden;rotatable=0;points=[[0,0.5],[1,0.5]];portConstraint=eastwest;" vertex="1" parent="7OnyWFmnBboxzsiJ5zTd-37">
                    <mxGeometry y="130" width="140" height="26" as="geometry"/>
                </mxCell>
                <mxCell id="PS_barCpbeQ6-SUB9HpP-37" value="・画像" style="text;strokeColor=none;fillColor=none;align=left;verticalAlign=top;spacingLeft=4;spacingRight=4;overflow=hidden;rotatable=0;points=[[0,0.5],[1,0.5]];portConstraint=eastwest;" vertex="1" parent="7OnyWFmnBboxzsiJ5zTd-37">
                    <mxGeometry y="156" width="140" height="26" as="geometry"/>
                </mxCell>
                <mxCell id="PS_barCpbeQ6-SUB9HpP-38" value="・登録ボタン" style="text;strokeColor=none;fillColor=none;align=left;verticalAlign=top;spacingLeft=4;spacingRight=4;overflow=hidden;rotatable=0;points=[[0,0.5],[1,0.5]];portConstraint=eastwest;" vertex="1" parent="7OnyWFmnBboxzsiJ5zTd-37">
                    <mxGeometry y="182" width="140" height="26" as="geometry"/>
                </mxCell>
                <mxCell id="PS_barCpbeQ6-SUB9HpP-39" value="・戻るボタン" style="text;strokeColor=none;fillColor=none;align=left;verticalAlign=top;spacingLeft=4;spacingRight=4;overflow=hidden;rotatable=0;points=[[0,0.5],[1,0.5]];portConstraint=eastwest;" vertex="1" parent="7OnyWFmnBboxzsiJ5zTd-37">
                    <mxGeometry y="208" width="140" height="26" as="geometry"/>
                </mxCell>
                <mxCell id="PS_barCpbeQ6-SUB9HpP-41" value="List" style="swimlane;fontStyle=0;childLayout=stackLayout;horizontal=1;startSize=26;fillColor=none;horizontalStack=0;resizeParent=1;resizeParentMax=0;resizeLast=0;collapsible=1;marginBottom=0;fontSize=16;align=center;" vertex="1" parent="1">
                    <mxGeometry x="-250" y="550" width="140" height="234" as="geometry"/>
                </mxCell>
                <mxCell id="PS_barCpbeQ6-SUB9HpP-42" value="・もらった日" style="text;strokeColor=none;fillColor=none;align=left;verticalAlign=top;spacingLeft=4;spacingRight=4;overflow=hidden;rotatable=0;points=[[0,0.5],[1,0.5]];portConstraint=eastwest;" vertex="1" parent="PS_barCpbeQ6-SUB9HpP-41">
                    <mxGeometry y="26" width="140" height="26" as="geometry"/>
                </mxCell>
                <mxCell id="PS_barCpbeQ6-SUB9HpP-43" value="・商品名" style="text;strokeColor=none;fillColor=none;align=left;verticalAlign=top;spacingLeft=4;spacingRight=4;overflow=hidden;rotatable=0;points=[[0,0.5],[1,0.5]];portConstraint=eastwest;" vertex="1" parent="PS_barCpbeQ6-SUB9HpP-41">
                    <mxGeometry y="52" width="140" height="26" as="geometry"/>
                </mxCell>
                <mxCell id="PS_barCpbeQ6-SUB9HpP-44" value="・理由" style="text;strokeColor=none;fillColor=none;align=left;verticalAlign=top;spacingLeft=4;spacingRight=4;overflow=hidden;rotatable=0;points=[[0,0.5],[1,0.5]];portConstraint=eastwest;" vertex="1" parent="PS_barCpbeQ6-SUB9HpP-41">
                    <mxGeometry y="78" width="140" height="26" as="geometry"/>
                </mxCell>
                <mxCell id="PS_barCpbeQ6-SUB9HpP-45" value="・金額" style="text;strokeColor=none;fillColor=none;align=left;verticalAlign=top;spacingLeft=4;spacingRight=4;overflow=hidden;rotatable=0;points=[[0,0.5],[1,0.5]];portConstraint=eastwest;" vertex="1" parent="PS_barCpbeQ6-SUB9HpP-41">
                    <mxGeometry y="104" width="140" height="26" as="geometry"/>
                </mxCell>
                <mxCell id="PS_barCpbeQ6-SUB9HpP-46" value="・メモ" style="text;strokeColor=none;fillColor=none;align=left;verticalAlign=top;spacingLeft=4;spacingRight=4;overflow=hidden;rotatable=0;points=[[0,0.5],[1,0.5]];portConstraint=eastwest;" vertex="1" parent="PS_barCpbeQ6-SUB9HpP-41">
                    <mxGeometry y="130" width="140" height="26" as="geometry"/>
                </mxCell>
                <mxCell id="PS_barCpbeQ6-SUB9HpP-47" value="・画像" style="text;strokeColor=none;fillColor=none;align=left;verticalAlign=top;spacingLeft=4;spacingRight=4;overflow=hidden;rotatable=0;points=[[0,0.5],[1,0.5]];portConstraint=eastwest;" vertex="1" parent="PS_barCpbeQ6-SUB9HpP-41">
                    <mxGeometry y="156" width="140" height="26" as="geometry"/>
                </mxCell>
                <mxCell id="PS_barCpbeQ6-SUB9HpP-48" value="・登録ボタン" style="text;strokeColor=none;fillColor=none;align=left;verticalAlign=top;spacingLeft=4;spacingRight=4;overflow=hidden;rotatable=0;points=[[0,0.5],[1,0.5]];portConstraint=eastwest;" vertex="1" parent="PS_barCpbeQ6-SUB9HpP-41">
                    <mxGeometry y="182" width="140" height="26" as="geometry"/>
                </mxCell>
                <mxCell id="PS_barCpbeQ6-SUB9HpP-49" value="・戻るボタン" style="text;strokeColor=none;fillColor=none;align=left;verticalAlign=top;spacingLeft=4;spacingRight=4;overflow=hidden;rotatable=0;points=[[0,0.5],[1,0.5]];portConstraint=eastwest;" vertex="1" parent="PS_barCpbeQ6-SUB9HpP-41">
                    <mxGeometry y="208" width="140" height="26" as="geometry"/>
                </mxCell>
                <mxCell id="vppo6B0gQa4qW_2kmEy2-37" value="個人を新規登録" style="swimlane;fontStyle=0;childLayout=stackLayout;horizontal=1;startSize=26;fillColor=none;horizontalStack=0;resizeParent=1;resizeParentMax=0;resizeLast=0;collapsible=1;marginBottom=0;fontSize=16;align=center;" vertex="1" parent="1">
                    <mxGeometry x="555" y="320" width="140" height="312" as="geometry"/>
                </mxCell>
                <mxCell id="vppo6B0gQa4qW_2kmEy2-38" value="・名前" style="text;strokeColor=none;fillColor=none;align=left;verticalAlign=top;spacingLeft=4;spacingRight=4;overflow=hidden;rotatable=0;points=[[0,0.5],[1,0.5]];portConstraint=eastwest;" vertex="1" parent="vppo6B0gQa4qW_2kmEy2-37">
                    <mxGeometry y="26" width="140" height="26" as="geometry"/>
                </mxCell>
                <mxCell id="vppo6B0gQa4qW_2kmEy2-39" value="・ふりがな" style="text;strokeColor=none;fillColor=none;align=left;verticalAlign=top;spacingLeft=4;spacingRight=4;overflow=hidden;rotatable=0;points=[[0,0.5],[1,0.5]];portConstraint=eastwest;" vertex="1" parent="vppo6B0gQa4qW_2kmEy2-37">
                    <mxGeometry y="52" width="140" height="26" as="geometry"/>
                </mxCell>
                <mxCell id="vppo6B0gQa4qW_2kmEy2-40" value="・誕生日" style="text;strokeColor=none;fillColor=none;align=left;verticalAlign=top;spacingLeft=4;spacingRight=4;overflow=hidden;rotatable=0;points=[[0,0.5],[1,0.5]];portConstraint=eastwest;" vertex="1" parent="vppo6B0gQa4qW_2kmEy2-37">
                    <mxGeometry y="78" width="140" height="26" as="geometry"/>
                </mxCell>
                <mxCell id="vppo6B0gQa4qW_2kmEy2-41" value="・記念日１" style="text;strokeColor=none;fillColor=none;align=left;verticalAlign=top;spacingLeft=4;spacingRight=4;overflow=hidden;rotatable=0;points=[[0,0.5],[1,0.5]];portConstraint=eastwest;" vertex="1" parent="vppo6B0gQa4qW_2kmEy2-37">
                    <mxGeometry y="104" width="140" height="26" as="geometry"/>
                </mxCell>
                <mxCell id="vppo6B0gQa4qW_2kmEy2-42" value="・記念日２" style="text;strokeColor=none;fillColor=none;align=left;verticalAlign=top;spacingLeft=4;spacingRight=4;overflow=hidden;rotatable=0;points=[[0,0.5],[1,0.5]];portConstraint=eastwest;" vertex="1" parent="vppo6B0gQa4qW_2kmEy2-37">
                    <mxGeometry y="130" width="140" height="26" as="geometry"/>
                </mxCell>
                <mxCell id="vppo6B0gQa4qW_2kmEy2-43" value="・記念日３" style="text;strokeColor=none;fillColor=none;align=left;verticalAlign=top;spacingLeft=4;spacingRight=4;overflow=hidden;rotatable=0;points=[[0,0.5],[1,0.5]];portConstraint=eastwest;" vertex="1" parent="vppo6B0gQa4qW_2kmEy2-37">
                    <mxGeometry y="156" width="140" height="26" as="geometry"/>
                </mxCell>
                <mxCell id="vppo6B0gQa4qW_2kmEy2-44" value="・好きなもの" style="text;strokeColor=none;fillColor=none;align=left;verticalAlign=top;spacingLeft=4;spacingRight=4;overflow=hidden;rotatable=0;points=[[0,0.5],[1,0.5]];portConstraint=eastwest;" vertex="1" parent="vppo6B0gQa4qW_2kmEy2-37">
                    <mxGeometry y="182" width="140" height="26" as="geometry"/>
                </mxCell>
                <mxCell id="vppo6B0gQa4qW_2kmEy2-45" value="・嫌いなもの" style="text;strokeColor=none;fillColor=none;align=left;verticalAlign=top;spacingLeft=4;spacingRight=4;overflow=hidden;rotatable=0;points=[[0,0.5],[1,0.5]];portConstraint=eastwest;" vertex="1" parent="vppo6B0gQa4qW_2kmEy2-37">
                    <mxGeometry y="208" width="140" height="26" as="geometry"/>
                </mxCell>
                <mxCell id="vppo6B0gQa4qW_2kmEy2-46" value="・メモ" style="text;strokeColor=none;fillColor=none;align=left;verticalAlign=top;spacingLeft=4;spacingRight=4;overflow=hidden;rotatable=0;points=[[0,0.5],[1,0.5]];portConstraint=eastwest;" vertex="1" parent="vppo6B0gQa4qW_2kmEy2-37">
                    <mxGeometry y="234" width="140" height="26" as="geometry"/>
                </mxCell>
                <mxCell id="vppo6B0gQa4qW_2kmEy2-47" value="・登録ボタン" style="text;strokeColor=none;fillColor=none;align=left;verticalAlign=top;spacingLeft=4;spacingRight=4;overflow=hidden;rotatable=0;points=[[0,0.5],[1,0.5]];portConstraint=eastwest;" vertex="1" parent="vppo6B0gQa4qW_2kmEy2-37">
                    <mxGeometry y="260" width="140" height="26" as="geometry"/>
                </mxCell>
                <mxCell id="vppo6B0gQa4qW_2kmEy2-48" value="・戻るボタン" style="text;strokeColor=none;fillColor=none;align=left;verticalAlign=top;spacingLeft=4;spacingRight=4;overflow=hidden;rotatable=0;points=[[0,0.5],[1,0.5]];portConstraint=eastwest;" vertex="1" parent="vppo6B0gQa4qW_2kmEy2-37">
                    <mxGeometry y="286" width="140" height="26" as="geometry"/>
                </mxCell>
                <mxCell id="vppo6B0gQa4qW_2kmEy2-49" value="" style="endArrow=classic;html=1;fontSize=16;exitX=0.5;exitY=1;exitDx=0;exitDy=0;entryX=0.5;entryY=0;entryDx=0;entryDy=0;" edge="1" parent="1" source="z5Avvdh778aLWgWw0NUS-38" target="vppo6B0gQa4qW_2kmEy2-37">
                    <mxGeometry width="50" height="50" relative="1" as="geometry">
                        <mxPoint x="610" y="320" as="sourcePoint"/>
                        <mxPoint x="660" y="270" as="targetPoint"/>
                    </mxGeometry>
                </mxCell>
                <mxCell id="3EMKspsQ-nLFjBx80jmK-37" value="気になるもの登録" style="swimlane;fontStyle=0;childLayout=stackLayout;horizontal=1;startSize=26;fillColor=none;horizontalStack=0;resizeParent=1;resizeParentMax=0;resizeLast=0;collapsible=1;marginBottom=0;fontSize=16;align=center;" vertex="1" parent="1">
                    <mxGeometry x="710" y="320" width="140" height="234" as="geometry"/>
                </mxCell>
                <mxCell id="3EMKspsQ-nLFjBx80jmK-38" value="・商品名" style="text;strokeColor=none;fillColor=none;align=left;verticalAlign=top;spacingLeft=4;spacingRight=4;overflow=hidden;rotatable=0;points=[[0,0.5],[1,0.5]];portConstraint=eastwest;" vertex="1" parent="3EMKspsQ-nLFjBx80jmK-37">
                    <mxGeometry y="26" width="140" height="26" as="geometry"/>
                </mxCell>
                <mxCell id="3EMKspsQ-nLFjBx80jmK-39" value="・金額" style="text;strokeColor=none;fillColor=none;align=left;verticalAlign=top;spacingLeft=4;spacingRight=4;overflow=hidden;rotatable=0;points=[[0,0.5],[1,0.5]];portConstraint=eastwest;" vertex="1" parent="3EMKspsQ-nLFjBx80jmK-37">
                    <mxGeometry y="52" width="140" height="26" as="geometry"/>
                </mxCell>
                <mxCell id="3EMKspsQ-nLFjBx80jmK-40" value="・販売店" style="text;strokeColor=none;fillColor=none;align=left;verticalAlign=top;spacingLeft=4;spacingRight=4;overflow=hidden;rotatable=0;points=[[0,0.5],[1,0.5]];portConstraint=eastwest;" vertex="1" parent="3EMKspsQ-nLFjBx80jmK-37">
                    <mxGeometry y="78" width="140" height="26" as="geometry"/>
                </mxCell>
                <mxCell id="3EMKspsQ-nLFjBx80jmK-41" value="・贈りたい人" style="text;strokeColor=none;fillColor=none;align=left;verticalAlign=top;spacingLeft=4;spacingRight=4;overflow=hidden;rotatable=0;points=[[0,0.5],[1,0.5]];portConstraint=eastwest;" vertex="1" parent="3EMKspsQ-nLFjBx80jmK-37">
                    <mxGeometry y="104" width="140" height="26" as="geometry"/>
                </mxCell>
                <mxCell id="3EMKspsQ-nLFjBx80jmK-42" value="・メモ" style="text;strokeColor=none;fillColor=none;align=left;verticalAlign=top;spacingLeft=4;spacingRight=4;overflow=hidden;rotatable=0;points=[[0,0.5],[1,0.5]];portConstraint=eastwest;" vertex="1" parent="3EMKspsQ-nLFjBx80jmK-37">
                    <mxGeometry y="130" width="140" height="26" as="geometry"/>
                </mxCell>
                <mxCell id="3EMKspsQ-nLFjBx80jmK-43" value="・画像" style="text;strokeColor=none;fillColor=none;align=left;verticalAlign=top;spacingLeft=4;spacingRight=4;overflow=hidden;rotatable=0;points=[[0,0.5],[1,0.5]];portConstraint=eastwest;" vertex="1" parent="3EMKspsQ-nLFjBx80jmK-37">
                    <mxGeometry y="156" width="140" height="26" as="geometry"/>
                </mxCell>
                <mxCell id="3EMKspsQ-nLFjBx80jmK-44" value="・登録ボタン" style="text;strokeColor=none;fillColor=none;align=left;verticalAlign=top;spacingLeft=4;spacingRight=4;overflow=hidden;rotatable=0;points=[[0,0.5],[1,0.5]];portConstraint=eastwest;" vertex="1" parent="3EMKspsQ-nLFjBx80jmK-37">
                    <mxGeometry y="182" width="140" height="26" as="geometry"/>
                </mxCell>
                <mxCell id="3EMKspsQ-nLFjBx80jmK-45" value="・戻るボタン" style="text;strokeColor=none;fillColor=none;align=left;verticalAlign=top;spacingLeft=4;spacingRight=4;overflow=hidden;rotatable=0;points=[[0,0.5],[1,0.5]];portConstraint=eastwest;" vertex="1" parent="3EMKspsQ-nLFjBx80jmK-37">
                    <mxGeometry y="208" width="140" height="26" as="geometry"/>
                </mxCell>
                <mxCell id="3EMKspsQ-nLFjBx80jmK-48" value="" style="endArrow=classic;html=1;fontSize=16;exitX=0.5;exitY=1;exitDx=0;exitDy=0;entryX=0.45;entryY=0.002;entryDx=0;entryDy=0;entryPerimeter=0;" edge="1" parent="1" source="S16YsJGQa3P8UsC8Cbdx-38" target="3EMKspsQ-nLFjBx80jmK-37">
                    <mxGeometry width="50" height="50" relative="1" as="geometry">
                        <mxPoint x="730" y="290" as="sourcePoint"/>
                        <mxPoint x="780" y="240" as="targetPoint"/>
                    </mxGeometry>
                </mxCell>
            </root>
        </mxGraphModel>
    </diagram>
    <diagram id="-TOs95XnN07739Cq_6q-" name="トップ画面">
        <mxGraphModel dx="736" dy="577" grid="1" gridSize="10" guides="1" tooltips="1" connect="1" arrows="1" fold="1" page="1" pageScale="1" pageWidth="827" pageHeight="1169" math="0" shadow="0">
            <root>
                <mxCell id="8b0-hiGYwpZNHQw1x2rL-0"/>
                <mxCell id="8b0-hiGYwpZNHQw1x2rL-1" parent="8b0-hiGYwpZNHQw1x2rL-0"/>
                <mxCell id="8b0-hiGYwpZNHQw1x2rL-6" value="" style="rounded=0;whiteSpace=wrap;html=1;" parent="8b0-hiGYwpZNHQw1x2rL-1" vertex="1">
                    <mxGeometry x="60" y="140" width="440" height="380" as="geometry"/>
                </mxCell>
                <mxCell id="8b0-hiGYwpZNHQw1x2rL-2" value="個人名リスト" style="rounded=0;whiteSpace=wrap;html=1;" parent="8b0-hiGYwpZNHQw1x2rL-1" vertex="1">
                    <mxGeometry x="100" y="200" width="180" height="250" as="geometry"/>
                </mxCell>
                <mxCell id="8b0-hiGYwpZNHQw1x2rL-4" value="検索窓" style="rounded=0;whiteSpace=wrap;html=1;align=left;" parent="8b0-hiGYwpZNHQw1x2rL-1" vertex="1">
                    <mxGeometry x="100" y="160" width="120" height="20" as="geometry"/>
                </mxCell>
                <mxCell id="8b0-hiGYwpZNHQw1x2rL-5" value="検索" style="rounded=0;whiteSpace=wrap;html=1;" parent="8b0-hiGYwpZNHQw1x2rL-1" vertex="1">
                    <mxGeometry x="240" y="160" width="40" height="20" as="geometry"/>
                </mxCell>
                <mxCell id="BLTKPA0jTQr7osQehgoM-1" value="検索窓で個人の名前を検索できる。" style="shape=callout;whiteSpace=wrap;html=1;perimeter=calloutPerimeter;" parent="8b0-hiGYwpZNHQw1x2rL-1" vertex="1">
                    <mxGeometry x="120" y="80" width="120" height="80" as="geometry"/>
                </mxCell>
                <mxCell id="IpV5KHeVpGG3wkijqtv5-0" value="個人を新規登録" style="rounded=0;whiteSpace=wrap;html=1;" parent="8b0-hiGYwpZNHQw1x2rL-1" vertex="1">
                    <mxGeometry x="330" y="200" width="120" height="40" as="geometry"/>
                </mxCell>
                <mxCell id="xYwqUpTVEVXW0ju5It9m-0" value="気になるもの登録" style="rounded=0;whiteSpace=wrap;html=1;" parent="8b0-hiGYwpZNHQw1x2rL-1" vertex="1">
                    <mxGeometry x="330" y="260" width="120" height="40" as="geometry"/>
                </mxCell>
                <mxCell id="xvCmYHGtegKbapzXu3lY-0" value="気になるものリスト" style="rounded=0;whiteSpace=wrap;html=1;" vertex="1" parent="8b0-hiGYwpZNHQw1x2rL-1">
                    <mxGeometry x="330" y="320" width="120" height="40" as="geometry"/>
                </mxCell>
            </root>
        </mxGraphModel>
    </diagram>
    <diagram id="qeGj1OxaKkqDJ8mMq1gV" name="個人を新規登録">
        <mxGraphModel dx="736" dy="577" grid="1" gridSize="10" guides="1" tooltips="1" connect="1" arrows="1" fold="1" page="1" pageScale="1" pageWidth="827" pageHeight="1169" math="0" shadow="0">
            <root>
                <mxCell id="JSYvs1CVEzZlc9iFRCEe-0"/>
                <mxCell id="JSYvs1CVEzZlc9iFRCEe-1" parent="JSYvs1CVEzZlc9iFRCEe-0"/>
                <mxCell id="RDwq5E7EvWq5VvlN2EJa-17" value="" style="rounded=0;whiteSpace=wrap;html=1;align=left;" parent="JSYvs1CVEzZlc9iFRCEe-1" vertex="1">
                    <mxGeometry x="50" y="40" width="260" height="510" as="geometry"/>
                </mxCell>
                <mxCell id="RDwq5E7EvWq5VvlN2EJa-0" value="名前" style="text;html=1;align=left;verticalAlign=middle;resizable=0;points=[];autosize=1;" parent="JSYvs1CVEzZlc9iFRCEe-1" vertex="1">
                    <mxGeometry x="70" y="50" width="40" height="20" as="geometry"/>
                </mxCell>
                <mxCell id="RDwq5E7EvWq5VvlN2EJa-1" value="" style="rounded=0;whiteSpace=wrap;html=1;" parent="JSYvs1CVEzZlc9iFRCEe-1" vertex="1">
                    <mxGeometry x="130" y="50" width="120" height="20" as="geometry"/>
                </mxCell>
                <mxCell id="RDwq5E7EvWq5VvlN2EJa-2" value="誕生日" style="text;html=1;align=left;verticalAlign=middle;resizable=0;points=[];autosize=1;" parent="JSYvs1CVEzZlc9iFRCEe-1" vertex="1">
                    <mxGeometry x="70" y="110" width="50" height="20" as="geometry"/>
                </mxCell>
                <mxCell id="RDwq5E7EvWq5VvlN2EJa-4" value="" style="rounded=0;whiteSpace=wrap;html=1;" parent="JSYvs1CVEzZlc9iFRCEe-1" vertex="1">
                    <mxGeometry x="130" y="110" width="120" height="20" as="geometry"/>
                </mxCell>
                <mxCell id="RDwq5E7EvWq5VvlN2EJa-5" value="記念日1" style="text;html=1;align=left;verticalAlign=middle;resizable=0;points=[];autosize=1;" parent="JSYvs1CVEzZlc9iFRCEe-1" vertex="1">
                    <mxGeometry x="70" y="142" width="60" height="20" as="geometry"/>
                </mxCell>
                <mxCell id="RDwq5E7EvWq5VvlN2EJa-6" value="記念日2" style="text;html=1;align=left;verticalAlign=middle;resizable=0;points=[];autosize=1;" parent="JSYvs1CVEzZlc9iFRCEe-1" vertex="1">
                    <mxGeometry x="70" y="172" width="60" height="20" as="geometry"/>
                </mxCell>
                <mxCell id="RDwq5E7EvWq5VvlN2EJa-7" value="記念日3" style="text;html=1;align=left;verticalAlign=middle;resizable=0;points=[];autosize=1;" parent="JSYvs1CVEzZlc9iFRCEe-1" vertex="1">
                    <mxGeometry x="70" y="202" width="60" height="20" as="geometry"/>
                </mxCell>
                <mxCell id="RDwq5E7EvWq5VvlN2EJa-8" value="" style="rounded=0;whiteSpace=wrap;html=1;" parent="JSYvs1CVEzZlc9iFRCEe-1" vertex="1">
                    <mxGeometry x="130" y="172" width="120" height="20" as="geometry"/>
                </mxCell>
                <mxCell id="RDwq5E7EvWq5VvlN2EJa-9" value="" style="rounded=0;whiteSpace=wrap;html=1;" parent="JSYvs1CVEzZlc9iFRCEe-1" vertex="1">
                    <mxGeometry x="130" y="202" width="120" height="20" as="geometry"/>
                </mxCell>
                <mxCell id="RDwq5E7EvWq5VvlN2EJa-10" value="" style="rounded=0;whiteSpace=wrap;html=1;" parent="JSYvs1CVEzZlc9iFRCEe-1" vertex="1">
                    <mxGeometry x="130" y="142" width="120" height="20" as="geometry"/>
                </mxCell>
                <mxCell id="RDwq5E7EvWq5VvlN2EJa-11" value="好きなもの" style="text;html=1;align=left;verticalAlign=middle;resizable=0;points=[];autosize=1;" parent="JSYvs1CVEzZlc9iFRCEe-1" vertex="1">
                    <mxGeometry x="70" y="237" width="80" height="20" as="geometry"/>
                </mxCell>
                <mxCell id="RDwq5E7EvWq5VvlN2EJa-12" value="" style="rounded=0;whiteSpace=wrap;html=1;align=left;" parent="JSYvs1CVEzZlc9iFRCEe-1" vertex="1">
                    <mxGeometry x="130" y="257" width="120" height="60" as="geometry"/>
                </mxCell>
                <mxCell id="RDwq5E7EvWq5VvlN2EJa-13" value="嫌いなもの" style="text;html=1;align=left;verticalAlign=middle;resizable=0;points=[];autosize=1;" parent="JSYvs1CVEzZlc9iFRCEe-1" vertex="1">
                    <mxGeometry x="70" y="322" width="80" height="20" as="geometry"/>
                </mxCell>
                <mxCell id="RDwq5E7EvWq5VvlN2EJa-14" value="" style="rounded=0;whiteSpace=wrap;html=1;align=left;" parent="JSYvs1CVEzZlc9iFRCEe-1" vertex="1">
                    <mxGeometry x="130" y="342" width="120" height="60" as="geometry"/>
                </mxCell>
                <mxCell id="RDwq5E7EvWq5VvlN2EJa-15" value="メモ" style="text;html=1;align=left;verticalAlign=middle;resizable=0;points=[];autosize=1;" parent="JSYvs1CVEzZlc9iFRCEe-1" vertex="1">
                    <mxGeometry x="70" y="402" width="40" height="20" as="geometry"/>
                </mxCell>
                <mxCell id="RDwq5E7EvWq5VvlN2EJa-16" value="" style="rounded=0;whiteSpace=wrap;html=1;align=left;" parent="JSYvs1CVEzZlc9iFRCEe-1" vertex="1">
                    <mxGeometry x="130" y="422" width="120" height="60" as="geometry"/>
                </mxCell>
                <mxCell id="RDwq5E7EvWq5VvlN2EJa-18" value="&lt;font style=&quot;font-size: 16px&quot;&gt;登録&lt;/font&gt;" style="rounded=0;whiteSpace=wrap;html=1;align=center;" parent="JSYvs1CVEzZlc9iFRCEe-1" vertex="1">
                    <mxGeometry x="70" y="502" width="90" height="30" as="geometry"/>
                </mxCell>
                <mxCell id="Ld8EMfGC8zturhvXZVyq-1" value="&lt;font style=&quot;font-size: 16px&quot;&gt;戻る&lt;/font&gt;" style="rounded=0;whiteSpace=wrap;html=1;align=center;" parent="JSYvs1CVEzZlc9iFRCEe-1" vertex="1">
                    <mxGeometry x="200" y="502" width="90" height="30" as="geometry"/>
                </mxCell>
                <mxCell id="tC9C-ekd361TIPlx0xHm-0" value="フリガナ" style="text;html=1;align=left;verticalAlign=middle;resizable=0;points=[];autosize=1;" vertex="1" parent="JSYvs1CVEzZlc9iFRCEe-1">
                    <mxGeometry x="70" y="80" width="60" height="20" as="geometry"/>
                </mxCell>
                <mxCell id="tC9C-ekd361TIPlx0xHm-1" value="" style="rounded=0;whiteSpace=wrap;html=1;" vertex="1" parent="JSYvs1CVEzZlc9iFRCEe-1">
                    <mxGeometry x="130" y="80" width="120" height="20" as="geometry"/>
                </mxCell>
            </root>
        </mxGraphModel>
    </diagram>
    <diagram id="ebGaGLeKGskZe5nHNfri" name="個人詳細画面">
        <mxGraphModel dx="736" dy="577" grid="1" gridSize="10" guides="1" tooltips="1" connect="1" arrows="1" fold="1" page="1" pageScale="1" pageWidth="827" pageHeight="1169" math="0" shadow="0">
            <root>
                <mxCell id="4nQGW_243yEfBROlqMLQ-0"/>
                <mxCell id="4nQGW_243yEfBROlqMLQ-1" parent="4nQGW_243yEfBROlqMLQ-0"/>
                <mxCell id="4nQGW_243yEfBROlqMLQ-2" value="" style="rounded=0;whiteSpace=wrap;html=1;align=left;" parent="4nQGW_243yEfBROlqMLQ-1" vertex="1">
                    <mxGeometry x="50" y="30" width="410" height="480" as="geometry"/>
                </mxCell>
                <mxCell id="4nQGW_243yEfBROlqMLQ-3" value="名前" style="text;html=1;align=left;verticalAlign=middle;resizable=0;points=[];autosize=1;" parent="4nQGW_243yEfBROlqMLQ-1" vertex="1">
                    <mxGeometry x="70" y="50" width="40" height="20" as="geometry"/>
                </mxCell>
                <mxCell id="4nQGW_243yEfBROlqMLQ-4" value="" style="rounded=0;whiteSpace=wrap;html=1;" parent="4nQGW_243yEfBROlqMLQ-1" vertex="1">
                    <mxGeometry x="130" y="50" width="120" height="20" as="geometry"/>
                </mxCell>
                <mxCell id="4nQGW_243yEfBROlqMLQ-5" value="誕生日" style="text;html=1;align=left;verticalAlign=middle;resizable=0;points=[];autosize=1;" parent="4nQGW_243yEfBROlqMLQ-1" vertex="1">
                    <mxGeometry x="70" y="78" width="50" height="20" as="geometry"/>
                </mxCell>
                <mxCell id="4nQGW_243yEfBROlqMLQ-6" value="" style="rounded=0;whiteSpace=wrap;html=1;" parent="4nQGW_243yEfBROlqMLQ-1" vertex="1">
                    <mxGeometry x="130" y="78" width="120" height="20" as="geometry"/>
                </mxCell>
                <mxCell id="4nQGW_243yEfBROlqMLQ-7" value="記念日1" style="text;html=1;align=left;verticalAlign=middle;resizable=0;points=[];autosize=1;" parent="4nQGW_243yEfBROlqMLQ-1" vertex="1">
                    <mxGeometry x="70" y="110" width="60" height="20" as="geometry"/>
                </mxCell>
                <mxCell id="4nQGW_243yEfBROlqMLQ-8" value="記念日2" style="text;html=1;align=left;verticalAlign=middle;resizable=0;points=[];autosize=1;" parent="4nQGW_243yEfBROlqMLQ-1" vertex="1">
                    <mxGeometry x="70" y="140" width="60" height="20" as="geometry"/>
                </mxCell>
                <mxCell id="4nQGW_243yEfBROlqMLQ-9" value="記念日3" style="text;html=1;align=left;verticalAlign=middle;resizable=0;points=[];autosize=1;" parent="4nQGW_243yEfBROlqMLQ-1" vertex="1">
                    <mxGeometry x="70" y="170" width="60" height="20" as="geometry"/>
                </mxCell>
                <mxCell id="4nQGW_243yEfBROlqMLQ-10" value="" style="rounded=0;whiteSpace=wrap;html=1;" parent="4nQGW_243yEfBROlqMLQ-1" vertex="1">
                    <mxGeometry x="130" y="140" width="120" height="20" as="geometry"/>
                </mxCell>
                <mxCell id="4nQGW_243yEfBROlqMLQ-11" value="" style="rounded=0;whiteSpace=wrap;html=1;" parent="4nQGW_243yEfBROlqMLQ-1" vertex="1">
                    <mxGeometry x="130" y="170" width="120" height="20" as="geometry"/>
                </mxCell>
                <mxCell id="4nQGW_243yEfBROlqMLQ-12" value="" style="rounded=0;whiteSpace=wrap;html=1;" parent="4nQGW_243yEfBROlqMLQ-1" vertex="1">
                    <mxGeometry x="130" y="110" width="120" height="20" as="geometry"/>
                </mxCell>
                <mxCell id="4nQGW_243yEfBROlqMLQ-13" value="好きなもの" style="text;html=1;align=left;verticalAlign=middle;resizable=0;points=[];autosize=1;" parent="4nQGW_243yEfBROlqMLQ-1" vertex="1">
                    <mxGeometry x="70" y="205" width="80" height="20" as="geometry"/>
                </mxCell>
                <mxCell id="4nQGW_243yEfBROlqMLQ-14" value="" style="rounded=0;whiteSpace=wrap;html=1;align=left;" parent="4nQGW_243yEfBROlqMLQ-1" vertex="1">
                    <mxGeometry x="130" y="225" width="120" height="60" as="geometry"/>
                </mxCell>
                <mxCell id="4nQGW_243yEfBROlqMLQ-15" value="嫌いなもの" style="text;html=1;align=left;verticalAlign=middle;resizable=0;points=[];autosize=1;" parent="4nQGW_243yEfBROlqMLQ-1" vertex="1">
                    <mxGeometry x="70" y="290" width="80" height="20" as="geometry"/>
                </mxCell>
                <mxCell id="4nQGW_243yEfBROlqMLQ-16" value="" style="rounded=0;whiteSpace=wrap;html=1;align=left;" parent="4nQGW_243yEfBROlqMLQ-1" vertex="1">
                    <mxGeometry x="130" y="310" width="120" height="60" as="geometry"/>
                </mxCell>
                <mxCell id="4nQGW_243yEfBROlqMLQ-17" value="メモ" style="text;html=1;align=left;verticalAlign=middle;resizable=0;points=[];autosize=1;" parent="4nQGW_243yEfBROlqMLQ-1" vertex="1">
                    <mxGeometry x="70" y="370" width="40" height="20" as="geometry"/>
                </mxCell>
                <mxCell id="4nQGW_243yEfBROlqMLQ-18" value="" style="rounded=0;whiteSpace=wrap;html=1;align=left;" parent="4nQGW_243yEfBROlqMLQ-1" vertex="1">
                    <mxGeometry x="130" y="390" width="120" height="60" as="geometry"/>
                </mxCell>
                <mxCell id="4nQGW_243yEfBROlqMLQ-20" value="&lt;font style=&quot;font-size: 14px&quot;&gt;あげた登録&lt;/font&gt;" style="rounded=0;whiteSpace=wrap;html=1;align=center;" parent="4nQGW_243yEfBROlqMLQ-1" vertex="1">
                    <mxGeometry x="324" y="73" width="106" height="30" as="geometry"/>
                </mxCell>
                <mxCell id="4nQGW_243yEfBROlqMLQ-21" value="&lt;font style=&quot;font-size: 14px&quot;&gt;もらった登録&lt;/font&gt;" style="rounded=0;whiteSpace=wrap;html=1;align=center;" parent="4nQGW_243yEfBROlqMLQ-1" vertex="1">
                    <mxGeometry x="324" y="135" width="106" height="30" as="geometry"/>
                </mxCell>
                <mxCell id="FJN_LZhLE96Y4XiE5bdG-0" value="&lt;font style=&quot;font-size: 14px&quot;&gt;履歴&lt;/font&gt;" style="rounded=0;whiteSpace=wrap;html=1;align=center;" parent="4nQGW_243yEfBROlqMLQ-1" vertex="1">
                    <mxGeometry x="324" y="195" width="106" height="30" as="geometry"/>
                </mxCell>
                <mxCell id="tqnGx22SVzIaMpHmYaJ_-0" value="&lt;font style=&quot;font-size: 14px&quot;&gt;戻る&lt;/font&gt;" style="rounded=0;whiteSpace=wrap;html=1;align=center;" parent="4nQGW_243yEfBROlqMLQ-1" vertex="1">
                    <mxGeometry x="324" y="420" width="106" height="30" as="geometry"/>
                </mxCell>
                <mxCell id="EJMPcJTUAjxAW6Qqzzpb-0" value="&lt;span style=&quot;font-size: 14px&quot;&gt;プレゼント候補リスト&lt;br&gt;&lt;/span&gt;" style="rounded=0;whiteSpace=wrap;html=1;align=center;" vertex="1" parent="4nQGW_243yEfBROlqMLQ-1">
                    <mxGeometry x="324" y="255" width="106" height="30" as="geometry"/>
                </mxCell>
                <mxCell id="t6FCxsUg0f17kuR37nnX-0" value="&lt;span style=&quot;font-size: 14px&quot;&gt;削除&lt;br&gt;&lt;/span&gt;" style="rounded=0;whiteSpace=wrap;html=1;align=center;" vertex="1" parent="4nQGW_243yEfBROlqMLQ-1">
                    <mxGeometry x="324" y="320" width="106" height="30" as="geometry"/>
                </mxCell>
            </root>
        </mxGraphModel>
    </diagram>
    <diagram id="37nSl_UNlt3PL2MuZaJy" name="あげた登録">
        <mxGraphModel dx="736" dy="577" grid="1" gridSize="10" guides="1" tooltips="1" connect="1" arrows="1" fold="1" page="1" pageScale="1" pageWidth="827" pageHeight="1169" math="0" shadow="0">
            <root>
                <mxCell id="imNFloxApXLPjcCzEd64-0"/>
                <mxCell id="imNFloxApXLPjcCzEd64-1" parent="imNFloxApXLPjcCzEd64-0"/>
                <mxCell id="9RZSG3gu9B_wi96pPps7-32" value="" style="rounded=0;whiteSpace=wrap;html=1;align=left;" parent="imNFloxApXLPjcCzEd64-1" vertex="1">
                    <mxGeometry x="100" y="70" width="600" height="440" as="geometry"/>
                </mxCell>
                <mxCell id="9RZSG3gu9B_wi96pPps7-0" value="商品名" style="text;html=1;align=left;verticalAlign=middle;resizable=0;points=[];autosize=1;" parent="imNFloxApXLPjcCzEd64-1" vertex="1">
                    <mxGeometry x="310" y="133" width="50" height="20" as="geometry"/>
                </mxCell>
                <mxCell id="9RZSG3gu9B_wi96pPps7-1" value="" style="rounded=0;whiteSpace=wrap;html=1;align=left;" parent="imNFloxApXLPjcCzEd64-1" vertex="1">
                    <mxGeometry x="390" y="133" width="140" height="20" as="geometry"/>
                </mxCell>
                <mxCell id="9RZSG3gu9B_wi96pPps7-2" value="あげた日" style="text;html=1;align=left;verticalAlign=middle;resizable=0;points=[];autosize=1;" parent="imNFloxApXLPjcCzEd64-1" vertex="1">
                    <mxGeometry x="310" y="100" width="60" height="20" as="geometry"/>
                </mxCell>
                <mxCell id="9RZSG3gu9B_wi96pPps7-4" value="" style="rounded=0;whiteSpace=wrap;html=1;align=left;" parent="imNFloxApXLPjcCzEd64-1" vertex="1">
                    <mxGeometry x="390" y="100" width="140" height="20" as="geometry"/>
                </mxCell>
                <mxCell id="9RZSG3gu9B_wi96pPps7-6" value="理由" style="text;html=1;align=left;verticalAlign=middle;resizable=0;points=[];autosize=1;" parent="imNFloxApXLPjcCzEd64-1" vertex="1">
                    <mxGeometry x="310" y="163" width="40" height="20" as="geometry"/>
                </mxCell>
                <mxCell id="9RZSG3gu9B_wi96pPps7-7" value="" style="rounded=0;whiteSpace=wrap;html=1;align=left;" parent="imNFloxApXLPjcCzEd64-1" vertex="1">
                    <mxGeometry x="390" y="163" width="20" height="20" as="geometry"/>
                </mxCell>
                <mxCell id="9RZSG3gu9B_wi96pPps7-8" value="誕生日" style="text;html=1;align=left;verticalAlign=middle;resizable=0;points=[];autosize=1;" parent="imNFloxApXLPjcCzEd64-1" vertex="1">
                    <mxGeometry x="420" y="163" width="50" height="20" as="geometry"/>
                </mxCell>
                <mxCell id="9RZSG3gu9B_wi96pPps7-9" value="" style="rounded=0;whiteSpace=wrap;html=1;align=left;" parent="imNFloxApXLPjcCzEd64-1" vertex="1">
                    <mxGeometry x="490" y="163" width="20" height="20" as="geometry"/>
                </mxCell>
                <mxCell id="9RZSG3gu9B_wi96pPps7-10" value="" style="rounded=0;whiteSpace=wrap;html=1;align=left;" parent="imNFloxApXLPjcCzEd64-1" vertex="1">
                    <mxGeometry x="590" y="163" width="20" height="20" as="geometry"/>
                </mxCell>
                <mxCell id="9RZSG3gu9B_wi96pPps7-11" value="" style="rounded=0;whiteSpace=wrap;html=1;align=left;" parent="imNFloxApXLPjcCzEd64-1" vertex="1">
                    <mxGeometry x="590" y="193" width="20" height="20" as="geometry"/>
                </mxCell>
                <mxCell id="9RZSG3gu9B_wi96pPps7-12" value="" style="rounded=0;whiteSpace=wrap;html=1;align=left;" parent="imNFloxApXLPjcCzEd64-1" vertex="1">
                    <mxGeometry x="490" y="193" width="20" height="20" as="geometry"/>
                </mxCell>
                <mxCell id="9RZSG3gu9B_wi96pPps7-13" value="" style="rounded=0;whiteSpace=wrap;html=1;align=left;" parent="imNFloxApXLPjcCzEd64-1" vertex="1">
                    <mxGeometry x="390" y="193" width="20" height="20" as="geometry"/>
                </mxCell>
                <mxCell id="9RZSG3gu9B_wi96pPps7-15" value="記念日" style="text;html=1;align=left;verticalAlign=middle;resizable=0;points=[];autosize=1;" parent="imNFloxApXLPjcCzEd64-1" vertex="1">
                    <mxGeometry x="520" y="163" width="50" height="20" as="geometry"/>
                </mxCell>
                <mxCell id="9RZSG3gu9B_wi96pPps7-17" value="お礼" style="text;html=1;align=left;verticalAlign=middle;resizable=0;points=[];autosize=1;" parent="imNFloxApXLPjcCzEd64-1" vertex="1">
                    <mxGeometry x="420" y="193" width="40" height="20" as="geometry"/>
                </mxCell>
                <mxCell id="9RZSG3gu9B_wi96pPps7-19" value="お祝い" style="text;html=1;align=left;verticalAlign=middle;resizable=0;points=[];autosize=1;" parent="imNFloxApXLPjcCzEd64-1" vertex="1">
                    <mxGeometry x="620" y="163" width="50" height="20" as="geometry"/>
                </mxCell>
                <mxCell id="9RZSG3gu9B_wi96pPps7-20" value="おみやげ" style="text;html=1;align=left;verticalAlign=middle;resizable=0;points=[];autosize=1;" parent="imNFloxApXLPjcCzEd64-1" vertex="1">
                    <mxGeometry x="620" y="193" width="60" height="20" as="geometry"/>
                </mxCell>
                <mxCell id="9RZSG3gu9B_wi96pPps7-23" value="おとしだま" style="text;html=1;align=left;verticalAlign=middle;resizable=0;points=[];autosize=1;" parent="imNFloxApXLPjcCzEd64-1" vertex="1">
                    <mxGeometry x="420" y="220" width="80" height="20" as="geometry"/>
                </mxCell>
                <mxCell id="9RZSG3gu9B_wi96pPps7-24" value="金額" style="text;html=1;align=left;verticalAlign=middle;resizable=0;points=[];autosize=1;" parent="imNFloxApXLPjcCzEd64-1" vertex="1">
                    <mxGeometry x="310" y="280" width="40" height="20" as="geometry"/>
                </mxCell>
                <mxCell id="9RZSG3gu9B_wi96pPps7-25" value="" style="rounded=0;whiteSpace=wrap;html=1;align=left;" parent="imNFloxApXLPjcCzEd64-1" vertex="1">
                    <mxGeometry x="390" y="280" width="140" height="20" as="geometry"/>
                </mxCell>
                <mxCell id="9RZSG3gu9B_wi96pPps7-26" value="メモ" style="text;html=1;align=left;verticalAlign=middle;resizable=0;points=[];autosize=1;" parent="imNFloxApXLPjcCzEd64-1" vertex="1">
                    <mxGeometry x="310" y="320" width="40" height="20" as="geometry"/>
                </mxCell>
                <mxCell id="9RZSG3gu9B_wi96pPps7-27" value="" style="rounded=0;whiteSpace=wrap;html=1;align=left;" parent="imNFloxApXLPjcCzEd64-1" vertex="1">
                    <mxGeometry x="390" y="320" width="140" height="90" as="geometry"/>
                </mxCell>
                <mxCell id="9RZSG3gu9B_wi96pPps7-28" value="画像" style="rounded=0;whiteSpace=wrap;html=1;align=center;" parent="imNFloxApXLPjcCzEd64-1" vertex="1">
                    <mxGeometry x="130" y="100" width="160" height="153" as="geometry"/>
                </mxCell>
                <mxCell id="9RZSG3gu9B_wi96pPps7-30" value="&lt;font style=&quot;font-size: 16px&quot;&gt;登録&lt;/font&gt;" style="rounded=0;whiteSpace=wrap;html=1;align=center;" parent="imNFloxApXLPjcCzEd64-1" vertex="1">
                    <mxGeometry x="210" y="440" width="120" height="40" as="geometry"/>
                </mxCell>
                <mxCell id="9RZSG3gu9B_wi96pPps7-31" value="&lt;font style=&quot;font-size: 16px&quot;&gt;戻る&lt;/font&gt;" style="rounded=0;whiteSpace=wrap;html=1;align=center;" parent="imNFloxApXLPjcCzEd64-1" vertex="1">
                    <mxGeometry x="460" y="440" width="120" height="40" as="geometry"/>
                </mxCell>
                <mxCell id="DC31vK7D0mpZZkO9jwqR-0" value="" style="rounded=0;whiteSpace=wrap;html=1;align=left;" vertex="1" parent="imNFloxApXLPjcCzEd64-1">
                    <mxGeometry x="390" y="220" width="20" height="20" as="geometry"/>
                </mxCell>
                <mxCell id="DC31vK7D0mpZZkO9jwqR-1" value="お中元" style="text;html=1;align=left;verticalAlign=middle;resizable=0;points=[];autosize=1;" vertex="1" parent="imNFloxApXLPjcCzEd64-1">
                    <mxGeometry x="520" y="220" width="50" height="20" as="geometry"/>
                </mxCell>
                <mxCell id="DC31vK7D0mpZZkO9jwqR-2" value="" style="rounded=0;whiteSpace=wrap;html=1;align=left;" vertex="1" parent="imNFloxApXLPjcCzEd64-1">
                    <mxGeometry x="490" y="220" width="20" height="20" as="geometry"/>
                </mxCell>
                <mxCell id="DC31vK7D0mpZZkO9jwqR-3" value="" style="rounded=0;whiteSpace=wrap;html=1;align=left;" vertex="1" parent="imNFloxApXLPjcCzEd64-1">
                    <mxGeometry x="590" y="220" width="20" height="20" as="geometry"/>
                </mxCell>
                <mxCell id="DC31vK7D0mpZZkO9jwqR-4" value="お歳暮" style="text;html=1;align=left;verticalAlign=middle;resizable=0;points=[];autosize=1;" vertex="1" parent="imNFloxApXLPjcCzEd64-1">
                    <mxGeometry x="620" y="220" width="50" height="20" as="geometry"/>
                </mxCell>
                <mxCell id="DC31vK7D0mpZZkO9jwqR-5" value="クリスマス" style="text;html=1;align=left;verticalAlign=middle;resizable=0;points=[];autosize=1;" vertex="1" parent="imNFloxApXLPjcCzEd64-1">
                    <mxGeometry x="420" y="250" width="80" height="20" as="geometry"/>
                </mxCell>
                <mxCell id="DC31vK7D0mpZZkO9jwqR-6" value="" style="rounded=0;whiteSpace=wrap;html=1;align=left;" vertex="1" parent="imNFloxApXLPjcCzEd64-1">
                    <mxGeometry x="390" y="250" width="20" height="20" as="geometry"/>
                </mxCell>
                <mxCell id="DC31vK7D0mpZZkO9jwqR-7" value="おかえし" style="text;html=1;align=left;verticalAlign=middle;resizable=0;points=[];autosize=1;" vertex="1" parent="imNFloxApXLPjcCzEd64-1">
                    <mxGeometry x="520" y="193" width="60" height="20" as="geometry"/>
                </mxCell>
                <mxCell id="DC31vK7D0mpZZkO9jwqR-8" value="" style="rounded=0;whiteSpace=wrap;html=1;align=left;" vertex="1" parent="imNFloxApXLPjcCzEd64-1">
                    <mxGeometry x="490" y="250" width="20" height="20" as="geometry"/>
                </mxCell>
                <mxCell id="DC31vK7D0mpZZkO9jwqR-10" value="その他" style="text;html=1;align=left;verticalAlign=middle;resizable=0;points=[];autosize=1;" vertex="1" parent="imNFloxApXLPjcCzEd64-1">
                    <mxGeometry x="520" y="250" width="50" height="20" as="geometry"/>
                </mxCell>
            </root>
        </mxGraphModel>
    </diagram>
    <diagram id="vNtZgnisHX3dvkDySgfy" name="もらった登録">
        <mxGraphModel dx="736" dy="577" grid="1" gridSize="10" guides="1" tooltips="1" connect="1" arrows="1" fold="1" page="1" pageScale="1" pageWidth="827" pageHeight="1169" math="0" shadow="0">
            <root>
                <mxCell id="NHgkmOWgo6W6YYlw_EAp-0"/>
                <mxCell id="NHgkmOWgo6W6YYlw_EAp-1" parent="NHgkmOWgo6W6YYlw_EAp-0"/>
                <mxCell id="Xjbx0gOG7a7D_pRzDo0m-0" value="" style="rounded=0;whiteSpace=wrap;html=1;align=left;" vertex="1" parent="NHgkmOWgo6W6YYlw_EAp-1">
                    <mxGeometry x="100" y="70" width="600" height="440" as="geometry"/>
                </mxCell>
                <mxCell id="Xjbx0gOG7a7D_pRzDo0m-1" value="商品名" style="text;html=1;align=left;verticalAlign=middle;resizable=0;points=[];autosize=1;" vertex="1" parent="NHgkmOWgo6W6YYlw_EAp-1">
                    <mxGeometry x="310" y="133" width="50" height="20" as="geometry"/>
                </mxCell>
                <mxCell id="Xjbx0gOG7a7D_pRzDo0m-2" value="" style="rounded=0;whiteSpace=wrap;html=1;align=left;" vertex="1" parent="NHgkmOWgo6W6YYlw_EAp-1">
                    <mxGeometry x="390" y="133" width="140" height="20" as="geometry"/>
                </mxCell>
                <mxCell id="Xjbx0gOG7a7D_pRzDo0m-3" value="もらった日" style="text;html=1;align=left;verticalAlign=middle;resizable=0;points=[];autosize=1;" vertex="1" parent="NHgkmOWgo6W6YYlw_EAp-1">
                    <mxGeometry x="310" y="100" width="80" height="20" as="geometry"/>
                </mxCell>
                <mxCell id="Xjbx0gOG7a7D_pRzDo0m-4" value="" style="rounded=0;whiteSpace=wrap;html=1;align=left;" vertex="1" parent="NHgkmOWgo6W6YYlw_EAp-1">
                    <mxGeometry x="390" y="100" width="140" height="20" as="geometry"/>
                </mxCell>
                <mxCell id="Xjbx0gOG7a7D_pRzDo0m-5" value="理由" style="text;html=1;align=left;verticalAlign=middle;resizable=0;points=[];autosize=1;" vertex="1" parent="NHgkmOWgo6W6YYlw_EAp-1">
                    <mxGeometry x="310" y="163" width="40" height="20" as="geometry"/>
                </mxCell>
                <mxCell id="Xjbx0gOG7a7D_pRzDo0m-6" value="" style="rounded=0;whiteSpace=wrap;html=1;align=left;" vertex="1" parent="NHgkmOWgo6W6YYlw_EAp-1">
                    <mxGeometry x="390" y="163" width="20" height="20" as="geometry"/>
                </mxCell>
                <mxCell id="Xjbx0gOG7a7D_pRzDo0m-7" value="誕生日" style="text;html=1;align=left;verticalAlign=middle;resizable=0;points=[];autosize=1;" vertex="1" parent="NHgkmOWgo6W6YYlw_EAp-1">
                    <mxGeometry x="420" y="163" width="50" height="20" as="geometry"/>
                </mxCell>
                <mxCell id="Xjbx0gOG7a7D_pRzDo0m-8" value="" style="rounded=0;whiteSpace=wrap;html=1;align=left;" vertex="1" parent="NHgkmOWgo6W6YYlw_EAp-1">
                    <mxGeometry x="490" y="163" width="20" height="20" as="geometry"/>
                </mxCell>
                <mxCell id="Xjbx0gOG7a7D_pRzDo0m-9" value="" style="rounded=0;whiteSpace=wrap;html=1;align=left;" vertex="1" parent="NHgkmOWgo6W6YYlw_EAp-1">
                    <mxGeometry x="590" y="163" width="20" height="20" as="geometry"/>
                </mxCell>
                <mxCell id="Xjbx0gOG7a7D_pRzDo0m-10" value="" style="rounded=0;whiteSpace=wrap;html=1;align=left;" vertex="1" parent="NHgkmOWgo6W6YYlw_EAp-1">
                    <mxGeometry x="590" y="193" width="20" height="20" as="geometry"/>
                </mxCell>
                <mxCell id="Xjbx0gOG7a7D_pRzDo0m-11" value="" style="rounded=0;whiteSpace=wrap;html=1;align=left;" vertex="1" parent="NHgkmOWgo6W6YYlw_EAp-1">
                    <mxGeometry x="490" y="193" width="20" height="20" as="geometry"/>
                </mxCell>
                <mxCell id="Xjbx0gOG7a7D_pRzDo0m-12" value="" style="rounded=0;whiteSpace=wrap;html=1;align=left;" vertex="1" parent="NHgkmOWgo6W6YYlw_EAp-1">
                    <mxGeometry x="390" y="193" width="20" height="20" as="geometry"/>
                </mxCell>
                <mxCell id="Xjbx0gOG7a7D_pRzDo0m-13" value="記念日" style="text;html=1;align=left;verticalAlign=middle;resizable=0;points=[];autosize=1;" vertex="1" parent="NHgkmOWgo6W6YYlw_EAp-1">
                    <mxGeometry x="520" y="163" width="50" height="20" as="geometry"/>
                </mxCell>
                <mxCell id="Xjbx0gOG7a7D_pRzDo0m-14" value="お礼" style="text;html=1;align=left;verticalAlign=middle;resizable=0;points=[];autosize=1;" vertex="1" parent="NHgkmOWgo6W6YYlw_EAp-1">
                    <mxGeometry x="420" y="193" width="40" height="20" as="geometry"/>
                </mxCell>
                <mxCell id="Xjbx0gOG7a7D_pRzDo0m-15" value="お祝い" style="text;html=1;align=left;verticalAlign=middle;resizable=0;points=[];autosize=1;" vertex="1" parent="NHgkmOWgo6W6YYlw_EAp-1">
                    <mxGeometry x="620" y="163" width="50" height="20" as="geometry"/>
                </mxCell>
                <mxCell id="Xjbx0gOG7a7D_pRzDo0m-16" value="おみやげ" style="text;html=1;align=left;verticalAlign=middle;resizable=0;points=[];autosize=1;" vertex="1" parent="NHgkmOWgo6W6YYlw_EAp-1">
                    <mxGeometry x="620" y="193" width="60" height="20" as="geometry"/>
                </mxCell>
                <mxCell id="Xjbx0gOG7a7D_pRzDo0m-17" value="おとしだま" style="text;html=1;align=left;verticalAlign=middle;resizable=0;points=[];autosize=1;" vertex="1" parent="NHgkmOWgo6W6YYlw_EAp-1">
                    <mxGeometry x="420" y="220" width="80" height="20" as="geometry"/>
                </mxCell>
                <mxCell id="Xjbx0gOG7a7D_pRzDo0m-18" value="金額" style="text;html=1;align=left;verticalAlign=middle;resizable=0;points=[];autosize=1;" vertex="1" parent="NHgkmOWgo6W6YYlw_EAp-1">
                    <mxGeometry x="310" y="280" width="40" height="20" as="geometry"/>
                </mxCell>
                <mxCell id="Xjbx0gOG7a7D_pRzDo0m-19" value="" style="rounded=0;whiteSpace=wrap;html=1;align=left;" vertex="1" parent="NHgkmOWgo6W6YYlw_EAp-1">
                    <mxGeometry x="390" y="280" width="140" height="20" as="geometry"/>
                </mxCell>
                <mxCell id="Xjbx0gOG7a7D_pRzDo0m-20" value="メモ" style="text;html=1;align=left;verticalAlign=middle;resizable=0;points=[];autosize=1;" vertex="1" parent="NHgkmOWgo6W6YYlw_EAp-1">
                    <mxGeometry x="310" y="320" width="40" height="20" as="geometry"/>
                </mxCell>
                <mxCell id="Xjbx0gOG7a7D_pRzDo0m-21" value="" style="rounded=0;whiteSpace=wrap;html=1;align=left;" vertex="1" parent="NHgkmOWgo6W6YYlw_EAp-1">
                    <mxGeometry x="390" y="320" width="140" height="90" as="geometry"/>
                </mxCell>
                <mxCell id="Xjbx0gOG7a7D_pRzDo0m-22" value="画像" style="rounded=0;whiteSpace=wrap;html=1;align=center;" vertex="1" parent="NHgkmOWgo6W6YYlw_EAp-1">
                    <mxGeometry x="130" y="100" width="160" height="153" as="geometry"/>
                </mxCell>
                <mxCell id="Xjbx0gOG7a7D_pRzDo0m-23" value="&lt;font style=&quot;font-size: 16px&quot;&gt;登録&lt;/font&gt;" style="rounded=0;whiteSpace=wrap;html=1;align=center;" vertex="1" parent="NHgkmOWgo6W6YYlw_EAp-1">
                    <mxGeometry x="210" y="440" width="120" height="40" as="geometry"/>
                </mxCell>
                <mxCell id="Xjbx0gOG7a7D_pRzDo0m-24" value="&lt;font style=&quot;font-size: 16px&quot;&gt;戻る&lt;/font&gt;" style="rounded=0;whiteSpace=wrap;html=1;align=center;" vertex="1" parent="NHgkmOWgo6W6YYlw_EAp-1">
                    <mxGeometry x="460" y="440" width="120" height="40" as="geometry"/>
                </mxCell>
                <mxCell id="Xjbx0gOG7a7D_pRzDo0m-25" value="" style="rounded=0;whiteSpace=wrap;html=1;align=left;" vertex="1" parent="NHgkmOWgo6W6YYlw_EAp-1">
                    <mxGeometry x="390" y="220" width="20" height="20" as="geometry"/>
                </mxCell>
                <mxCell id="Xjbx0gOG7a7D_pRzDo0m-26" value="お中元" style="text;html=1;align=left;verticalAlign=middle;resizable=0;points=[];autosize=1;" vertex="1" parent="NHgkmOWgo6W6YYlw_EAp-1">
                    <mxGeometry x="520" y="220" width="50" height="20" as="geometry"/>
                </mxCell>
                <mxCell id="Xjbx0gOG7a7D_pRzDo0m-27" value="" style="rounded=0;whiteSpace=wrap;html=1;align=left;" vertex="1" parent="NHgkmOWgo6W6YYlw_EAp-1">
                    <mxGeometry x="490" y="220" width="20" height="20" as="geometry"/>
                </mxCell>
                <mxCell id="Xjbx0gOG7a7D_pRzDo0m-28" value="" style="rounded=0;whiteSpace=wrap;html=1;align=left;" vertex="1" parent="NHgkmOWgo6W6YYlw_EAp-1">
                    <mxGeometry x="590" y="220" width="20" height="20" as="geometry"/>
                </mxCell>
                <mxCell id="Xjbx0gOG7a7D_pRzDo0m-29" value="お歳暮" style="text;html=1;align=left;verticalAlign=middle;resizable=0;points=[];autosize=1;" vertex="1" parent="NHgkmOWgo6W6YYlw_EAp-1">
                    <mxGeometry x="620" y="220" width="50" height="20" as="geometry"/>
                </mxCell>
                <mxCell id="Xjbx0gOG7a7D_pRzDo0m-30" value="クリスマス" style="text;html=1;align=left;verticalAlign=middle;resizable=0;points=[];autosize=1;" vertex="1" parent="NHgkmOWgo6W6YYlw_EAp-1">
                    <mxGeometry x="420" y="250" width="80" height="20" as="geometry"/>
                </mxCell>
                <mxCell id="Xjbx0gOG7a7D_pRzDo0m-31" value="" style="rounded=0;whiteSpace=wrap;html=1;align=left;" vertex="1" parent="NHgkmOWgo6W6YYlw_EAp-1">
                    <mxGeometry x="390" y="250" width="20" height="20" as="geometry"/>
                </mxCell>
                <mxCell id="Xjbx0gOG7a7D_pRzDo0m-32" value="おかえし" style="text;html=1;align=left;verticalAlign=middle;resizable=0;points=[];autosize=1;" vertex="1" parent="NHgkmOWgo6W6YYlw_EAp-1">
                    <mxGeometry x="520" y="193" width="60" height="20" as="geometry"/>
                </mxCell>
                <mxCell id="Xjbx0gOG7a7D_pRzDo0m-33" value="" style="rounded=0;whiteSpace=wrap;html=1;align=left;" vertex="1" parent="NHgkmOWgo6W6YYlw_EAp-1">
                    <mxGeometry x="490" y="250" width="20" height="20" as="geometry"/>
                </mxCell>
                <mxCell id="Xjbx0gOG7a7D_pRzDo0m-34" value="その他" style="text;html=1;align=left;verticalAlign=middle;resizable=0;points=[];autosize=1;" vertex="1" parent="NHgkmOWgo6W6YYlw_EAp-1">
                    <mxGeometry x="520" y="250" width="50" height="20" as="geometry"/>
                </mxCell>
            </root>
        </mxGraphModel>
    </diagram>
    <diagram id="KWXtJarG09XKDV_ey8t8" name="履歴画面">
        <mxGraphModel dx="736" dy="577" grid="1" gridSize="10" guides="1" tooltips="1" connect="1" arrows="1" fold="1" page="1" pageScale="1" pageWidth="827" pageHeight="1169" math="0" shadow="0">
            <root>
                <mxCell id="HkTEOiT2MfTmUX0NUD72-0"/>
                <mxCell id="HkTEOiT2MfTmUX0NUD72-1" parent="HkTEOiT2MfTmUX0NUD72-0"/>
                <mxCell id="LsRhct_5pFAt8NU90ILM-1" value="" style="rounded=0;whiteSpace=wrap;html=1;align=center;" parent="HkTEOiT2MfTmUX0NUD72-1" vertex="1">
                    <mxGeometry x="50" y="40" width="480" height="350" as="geometry"/>
                </mxCell>
                <mxCell id="NHOAoVbqFD1NKzhjUNpF-0" value="リスト" style="rounded=0;whiteSpace=wrap;html=1;align=center;" parent="HkTEOiT2MfTmUX0NUD72-1" vertex="1">
                    <mxGeometry x="80" y="80" width="210" height="280" as="geometry"/>
                </mxCell>
                <mxCell id="NHOAoVbqFD1NKzhjUNpF-1" value="全部" style="rounded=0;whiteSpace=wrap;html=1;align=center;" parent="HkTEOiT2MfTmUX0NUD72-1" vertex="1">
                    <mxGeometry x="330" y="80" width="80" height="40" as="geometry"/>
                </mxCell>
                <mxCell id="NHOAoVbqFD1NKzhjUNpF-2" value="あげた" style="rounded=0;whiteSpace=wrap;html=1;align=center;" parent="HkTEOiT2MfTmUX0NUD72-1" vertex="1">
                    <mxGeometry x="330" y="140" width="80" height="40" as="geometry"/>
                </mxCell>
                <mxCell id="NHOAoVbqFD1NKzhjUNpF-3" value="もらった" style="rounded=0;whiteSpace=wrap;html=1;align=center;" parent="HkTEOiT2MfTmUX0NUD72-1" vertex="1">
                    <mxGeometry x="330" y="200" width="80" height="40" as="geometry"/>
                </mxCell>
                <mxCell id="LsRhct_5pFAt8NU90ILM-0" value="削除" style="rounded=0;whiteSpace=wrap;html=1;align=center;" parent="HkTEOiT2MfTmUX0NUD72-1" vertex="1">
                    <mxGeometry x="330" y="260" width="80" height="40" as="geometry"/>
                </mxCell>
                <mxCell id="LsRhct_5pFAt8NU90ILM-2" value="デフォルトは全部の履歴。&lt;br&gt;&lt;div&gt;&lt;span&gt;あげた、もらったボタンを押せば絞り込める。&lt;/span&gt;&lt;/div&gt;&lt;div&gt;&lt;span&gt;削除ボタンはリストから削除したいものを選んで削除する。&lt;/span&gt;&lt;/div&gt;&lt;div&gt;&lt;span&gt;複数選択できるようにする。&lt;/span&gt;&lt;/div&gt;&lt;div&gt;&lt;span&gt;削除ボタンはなにか１つでもリストを選択しないかぎりクリックできないようにする。&lt;/span&gt;&lt;/div&gt;&lt;div&gt;削除前に確認する。&lt;/div&gt;" style="text;html=1;align=left;verticalAlign=middle;resizable=0;points=[];autosize=1;" parent="HkTEOiT2MfTmUX0NUD72-1" vertex="1">
                    <mxGeometry x="50" y="400" width="480" height="90" as="geometry"/>
                </mxCell>
                <mxCell id="2kpA6x2GPQOdclejXiZ5-0" value="戻る" style="rounded=0;whiteSpace=wrap;html=1;align=center;" vertex="1" parent="HkTEOiT2MfTmUX0NUD72-1">
                    <mxGeometry x="330" y="320" width="80" height="40" as="geometry"/>
                </mxCell>
            </root>
        </mxGraphModel>
    </diagram>
    <diagram id="pPL8huuWUk3ofLrQDM9Y" name="気になるもの登録">
        <mxGraphModel dx="736" dy="577" grid="1" gridSize="10" guides="1" tooltips="1" connect="1" arrows="1" fold="1" page="1" pageScale="1" pageWidth="827" pageHeight="1169" math="0" shadow="0">
            <root>
                <mxCell id="4UVGstGRNFayLGJPY1FL-0"/>
                <mxCell id="4UVGstGRNFayLGJPY1FL-1" parent="4UVGstGRNFayLGJPY1FL-0"/>
                <mxCell id="sMEoe8PQKyiRkQrenNq8-0" value="" style="rounded=0;whiteSpace=wrap;html=1;align=left;" vertex="1" parent="4UVGstGRNFayLGJPY1FL-1">
                    <mxGeometry x="90" y="60" width="580" height="400" as="geometry"/>
                </mxCell>
                <mxCell id="sMEoe8PQKyiRkQrenNq8-1" value="商品名" style="text;html=1;align=left;verticalAlign=middle;resizable=0;points=[];autosize=1;" vertex="1" parent="4UVGstGRNFayLGJPY1FL-1">
                    <mxGeometry x="310" y="100" width="50" height="20" as="geometry"/>
                </mxCell>
                <mxCell id="sMEoe8PQKyiRkQrenNq8-2" value="" style="rounded=0;whiteSpace=wrap;html=1;align=left;" vertex="1" parent="4UVGstGRNFayLGJPY1FL-1">
                    <mxGeometry x="410" y="100" width="140" height="20" as="geometry"/>
                </mxCell>
                <mxCell id="sMEoe8PQKyiRkQrenNq8-18" value="金額" style="text;html=1;align=left;verticalAlign=middle;resizable=0;points=[];autosize=1;" vertex="1" parent="4UVGstGRNFayLGJPY1FL-1">
                    <mxGeometry x="310" y="140" width="40" height="20" as="geometry"/>
                </mxCell>
                <mxCell id="sMEoe8PQKyiRkQrenNq8-19" value="" style="rounded=0;whiteSpace=wrap;html=1;align=left;" vertex="1" parent="4UVGstGRNFayLGJPY1FL-1">
                    <mxGeometry x="410" y="140" width="140" height="20" as="geometry"/>
                </mxCell>
                <mxCell id="sMEoe8PQKyiRkQrenNq8-20" value="メモ" style="text;html=1;align=left;verticalAlign=middle;resizable=0;points=[];autosize=1;" vertex="1" parent="4UVGstGRNFayLGJPY1FL-1">
                    <mxGeometry x="310" y="273" width="40" height="20" as="geometry"/>
                </mxCell>
                <mxCell id="sMEoe8PQKyiRkQrenNq8-21" value="" style="rounded=0;whiteSpace=wrap;html=1;align=left;" vertex="1" parent="4UVGstGRNFayLGJPY1FL-1">
                    <mxGeometry x="410" y="273" width="140" height="90" as="geometry"/>
                </mxCell>
                <mxCell id="sMEoe8PQKyiRkQrenNq8-22" value="画像" style="rounded=0;whiteSpace=wrap;html=1;align=center;" vertex="1" parent="4UVGstGRNFayLGJPY1FL-1">
                    <mxGeometry x="130" y="100" width="160" height="153" as="geometry"/>
                </mxCell>
                <mxCell id="sMEoe8PQKyiRkQrenNq8-23" value="&lt;font style=&quot;font-size: 16px&quot;&gt;登録&lt;/font&gt;" style="rounded=0;whiteSpace=wrap;html=1;align=center;" vertex="1" parent="4UVGstGRNFayLGJPY1FL-1">
                    <mxGeometry x="210" y="403" width="120" height="40" as="geometry"/>
                </mxCell>
                <mxCell id="sMEoe8PQKyiRkQrenNq8-24" value="&lt;font style=&quot;font-size: 16px&quot;&gt;戻る&lt;/font&gt;" style="rounded=0;whiteSpace=wrap;html=1;align=center;" vertex="1" parent="4UVGstGRNFayLGJPY1FL-1">
                    <mxGeometry x="430" y="403" width="120" height="40" as="geometry"/>
                </mxCell>
                <mxCell id="9uRTsimQ0pY4-3iZwEeD-3" value="販売店" style="text;html=1;align=left;verticalAlign=middle;resizable=0;points=[];autosize=1;" vertex="1" parent="4UVGstGRNFayLGJPY1FL-1">
                    <mxGeometry x="310" y="180" width="50" height="20" as="geometry"/>
                </mxCell>
                <mxCell id="9uRTsimQ0pY4-3iZwEeD-4" value="" style="rounded=0;whiteSpace=wrap;html=1;align=left;" vertex="1" parent="4UVGstGRNFayLGJPY1FL-1">
                    <mxGeometry x="410" y="180" width="140" height="20" as="geometry"/>
                </mxCell>
                <mxCell id="9uRTsimQ0pY4-3iZwEeD-5" value="贈りたい人" style="text;html=1;align=left;verticalAlign=middle;resizable=0;points=[];autosize=1;" vertex="1" parent="4UVGstGRNFayLGJPY1FL-1">
                    <mxGeometry x="310" y="220" width="80" height="20" as="geometry"/>
                </mxCell>
                <mxCell id="9uRTsimQ0pY4-3iZwEeD-6" value="" style="rounded=0;whiteSpace=wrap;html=1;align=left;" vertex="1" parent="4UVGstGRNFayLGJPY1FL-1">
                    <mxGeometry x="410" y="220" width="140" height="20" as="geometry"/>
                </mxCell>
            </root>
        </mxGraphModel>
    </diagram>
    <diagram id="QLjVeVPBtQjdXBhNnkts" name="気になるものリスト">
        <mxGraphModel dx="736" dy="577" grid="1" gridSize="10" guides="1" tooltips="1" connect="1" arrows="1" fold="1" page="1" pageScale="1" pageWidth="827" pageHeight="1169" math="0" shadow="0">
            <root>
                <mxCell id="UYat_UwQE0baZXutoH2D-0"/>
                <mxCell id="UYat_UwQE0baZXutoH2D-1" parent="UYat_UwQE0baZXutoH2D-0"/>
                <mxCell id="UYat_UwQE0baZXutoH2D-2" value="" style="rounded=0;whiteSpace=wrap;html=1;align=center;" vertex="1" parent="UYat_UwQE0baZXutoH2D-1">
                    <mxGeometry x="50" y="40" width="270" height="420" as="geometry"/>
                </mxCell>
                <mxCell id="UYat_UwQE0baZXutoH2D-3" value="リスト" style="rounded=0;whiteSpace=wrap;html=1;align=center;" vertex="1" parent="UYat_UwQE0baZXutoH2D-1">
                    <mxGeometry x="80" y="80" width="210" height="270" as="geometry"/>
                </mxCell>
                <mxCell id="UYat_UwQE0baZXutoH2D-7" value="戻る" style="rounded=0;whiteSpace=wrap;html=1;align=center;" vertex="1" parent="UYat_UwQE0baZXutoH2D-1">
                    <mxGeometry x="80" y="380" width="80" height="40" as="geometry"/>
                </mxCell>
                <mxCell id="v7QQ080S1FvmX1FhaUJp-0" value="" style="rounded=0;whiteSpace=wrap;html=1;align=left;" vertex="1" parent="UYat_UwQE0baZXutoH2D-1">
                    <mxGeometry x="414" y="40" width="536" height="400" as="geometry"/>
                </mxCell>
                <mxCell id="v7QQ080S1FvmX1FhaUJp-1" value="商品名" style="text;html=1;align=left;verticalAlign=middle;resizable=0;points=[];autosize=1;" vertex="1" parent="UYat_UwQE0baZXutoH2D-1">
                    <mxGeometry x="634" y="80" width="50" height="20" as="geometry"/>
                </mxCell>
                <mxCell id="v7QQ080S1FvmX1FhaUJp-2" value="" style="rounded=0;whiteSpace=wrap;html=1;align=left;" vertex="1" parent="UYat_UwQE0baZXutoH2D-1">
                    <mxGeometry x="734" y="80" width="140" height="20" as="geometry"/>
                </mxCell>
                <mxCell id="v7QQ080S1FvmX1FhaUJp-3" value="金額" style="text;html=1;align=left;verticalAlign=middle;resizable=0;points=[];autosize=1;" vertex="1" parent="UYat_UwQE0baZXutoH2D-1">
                    <mxGeometry x="634" y="120" width="40" height="20" as="geometry"/>
                </mxCell>
                <mxCell id="v7QQ080S1FvmX1FhaUJp-4" value="" style="rounded=0;whiteSpace=wrap;html=1;align=left;" vertex="1" parent="UYat_UwQE0baZXutoH2D-1">
                    <mxGeometry x="734" y="120" width="140" height="20" as="geometry"/>
                </mxCell>
                <mxCell id="v7QQ080S1FvmX1FhaUJp-5" value="メモ" style="text;html=1;align=left;verticalAlign=middle;resizable=0;points=[];autosize=1;" vertex="1" parent="UYat_UwQE0baZXutoH2D-1">
                    <mxGeometry x="634" y="253" width="40" height="20" as="geometry"/>
                </mxCell>
                <mxCell id="v7QQ080S1FvmX1FhaUJp-6" value="" style="rounded=0;whiteSpace=wrap;html=1;align=left;" vertex="1" parent="UYat_UwQE0baZXutoH2D-1">
                    <mxGeometry x="734" y="253" width="140" height="90" as="geometry"/>
                </mxCell>
                <mxCell id="v7QQ080S1FvmX1FhaUJp-7" value="画像" style="rounded=0;whiteSpace=wrap;html=1;align=center;" vertex="1" parent="UYat_UwQE0baZXutoH2D-1">
                    <mxGeometry x="454" y="80" width="160" height="153" as="geometry"/>
                </mxCell>
                <mxCell id="v7QQ080S1FvmX1FhaUJp-9" value="&lt;font style=&quot;font-size: 16px&quot;&gt;戻る&lt;/font&gt;" style="rounded=0;whiteSpace=wrap;html=1;align=center;" vertex="1" parent="UYat_UwQE0baZXutoH2D-1">
                    <mxGeometry x="640" y="380" width="120" height="40" as="geometry"/>
                </mxCell>
                <mxCell id="v7QQ080S1FvmX1FhaUJp-10" value="販売店" style="text;html=1;align=left;verticalAlign=middle;resizable=0;points=[];autosize=1;" vertex="1" parent="UYat_UwQE0baZXutoH2D-1">
                    <mxGeometry x="634" y="160" width="50" height="20" as="geometry"/>
                </mxCell>
                <mxCell id="v7QQ080S1FvmX1FhaUJp-11" value="" style="rounded=0;whiteSpace=wrap;html=1;align=left;" vertex="1" parent="UYat_UwQE0baZXutoH2D-1">
                    <mxGeometry x="734" y="160" width="140" height="20" as="geometry"/>
                </mxCell>
                <mxCell id="v7QQ080S1FvmX1FhaUJp-12" value="贈りたい人" style="text;html=1;align=left;verticalAlign=middle;resizable=0;points=[];autosize=1;" vertex="1" parent="UYat_UwQE0baZXutoH2D-1">
                    <mxGeometry x="634" y="200" width="80" height="20" as="geometry"/>
                </mxCell>
                <mxCell id="v7QQ080S1FvmX1FhaUJp-13" value="" style="rounded=0;whiteSpace=wrap;html=1;align=left;" vertex="1" parent="UYat_UwQE0baZXutoH2D-1">
                    <mxGeometry x="734" y="200" width="140" height="20" as="geometry"/>
                </mxCell>
                <mxCell id="v7QQ080S1FvmX1FhaUJp-14" value="" style="shape=flexArrow;endArrow=classic;html=1;" edge="1" parent="UYat_UwQE0baZXutoH2D-1">
                    <mxGeometry width="50" height="50" relative="1" as="geometry">
                        <mxPoint x="340" y="240" as="sourcePoint"/>
                        <mxPoint x="400" y="240" as="targetPoint"/>
                    </mxGeometry>
                </mxCell>
                <mxCell id="v7QQ080S1FvmX1FhaUJp-15" value="リストを選択するとこの画面になる" style="text;html=1;align=left;verticalAlign=middle;resizable=0;points=[];autosize=1;fontSize=16;" vertex="1" parent="UYat_UwQE0baZXutoH2D-1">
                    <mxGeometry x="414" y="460" width="270" height="20" as="geometry"/>
                </mxCell>
                <mxCell id="2T7Dkb5fhgVfYRhOWfuP-0" value="&lt;font style=&quot;font-size: 16px&quot;&gt;個人詳細&lt;/font&gt;" style="rounded=0;whiteSpace=wrap;html=1;align=center;" vertex="1" parent="UYat_UwQE0baZXutoH2D-1">
                    <mxGeometry x="494" y="380" width="120" height="40" as="geometry"/>
                </mxCell>
                <mxCell id="bYFyujQKjO_vjoVA45yz-0" value="削除" style="rounded=0;whiteSpace=wrap;html=1;align=center;" vertex="1" parent="UYat_UwQE0baZXutoH2D-1">
                    <mxGeometry x="210" y="380" width="80" height="40" as="geometry"/>
                </mxCell>
                <mxCell id="bYFyujQKjO_vjoVA45yz-1" value="&lt;font style=&quot;font-size: 16px&quot;&gt;削除&lt;/font&gt;" style="rounded=0;whiteSpace=wrap;html=1;align=center;" vertex="1" parent="UYat_UwQE0baZXutoH2D-1">
                    <mxGeometry x="790" y="380" width="120" height="40" as="geometry"/>
                </mxCell>
            </root>
        </mxGraphModel>
    </diagram>
</mxfile>